IQ-TREE multicore version 2.0.5 for Linux 64-bit built May 15 2020
Developed by Bui Quang Minh, Nguyen Lam Tung, Olga Chernomor,
Heiko Schmidt, Dominik Schrempf, Michael Woodhams.

Host:    cip2ryzen1.cip.ph.tum.de (AVX2, FMA3, 15 GB RAM)
Command: ../iqtree-2.0.5-Linux/bin/iqtree2 -s /scratch/ga42vor/simulating_quartets/accuracy_comparision/training2_30/training2_30.fasta -redo -m WAG
Seed:    654884 (Using SPRNG - Scalable Parallel Random Number Generator)
Time:    Thu May 28 17:06:05 2020
Kernel:  AVX+FMA - 1 threads (16 CPU cores detected)

HINT: Use -nt option to specify number of threads because your CPU has 16 cores!
HINT: -nt AUTO will automatically determine the best number of threads to use.

Reading alignment file /scratch/ga42vor/simulating_quartets/accuracy_comparision/training2_30/training2_30.fasta ... Fasta format detected
Alignment most likely contains protein sequences
Alignment has 20 sequences with 200 columns, 200 distinct patterns
171 parsimony-informative, 27 singleton sites, 2 constant sites
         Gap/Ambiguity  Composition  p-value
   1  taxon0     0.00%    passed     96.24%
   2  taxon1     0.00%    passed     92.19%
   3  taxon2     0.00%    passed     92.30%
   4  taxon3     0.00%    passed     79.72%
   5  taxon4     0.00%    passed     97.47%
   6  taxon5     0.00%    passed     58.68%
   7  taxon6     0.00%    passed     93.83%
   8  taxon7     0.00%    passed     98.19%
   9  taxon8     0.00%    passed     66.06%
  10  taxon9     0.00%    passed     88.19%
  11  taxon10    0.00%    passed     70.12%
  12  taxon11    0.00%    passed     94.19%
  13  taxon12    0.00%    passed     90.26%
  14  taxon13    0.00%    passed     54.43%
  15  taxon14    0.00%    passed     69.26%
  16  taxon15    0.00%    passed     85.12%
  17  taxon16    0.00%    passed     67.86%
  18  taxon17    0.00%    passed     80.72%
  19  taxon18    0.00%    passed     95.47%
  20  taxon19    0.00%    passed     80.64%
****  TOTAL      0.00%  0 sequences failed composition chi2 test (p-value<5%; df=19)

Create initial parsimony tree by phylogenetic likelihood library (PLL)... 0.002 seconds

NOTE: 0 MB RAM (0 GB) is required!
Estimate model parameters (epsilon = 0.100)
1. Initial log-likelihood: -7267.975
Optimal log-likelihood: -7244.743
Parameters optimization took 1 rounds (0.007 sec)
Computing ML distances based on estimated model parameters... 0.013 sec
Computing BIONJ tree...
0.000 seconds
Log-likelihood of BIONJ tree: -7247.018
--------------------------------------------------------------------
|             INITIALIZING CANDIDATE TREE SET                      |
--------------------------------------------------------------------
Generating 98 parsimony trees... 0.160 second
Computing log-likelihood of 98 initial trees ... 0.208 seconds
Current best score: -7244.743

Do NNI search on 20 best initial trees
Estimate model parameters (epsilon = 0.100)
BETTER TREE FOUND at iteration 1: -7244.174
Iteration 10 / LogL: -7244.177 / Time: 0h:0m:0s
Iteration 20 / LogL: -7244.235 / Time: 0h:0m:0s
Finish initializing candidate tree set (1)
Current best tree score: -7244.174 / CPU time: 0.797
Number of iterations: 20
--------------------------------------------------------------------
|               OPTIMIZING CANDIDATE TREE SET                      |
--------------------------------------------------------------------
Iteration 30 / LogL: -7244.372 / Time: 0h:0m:1s (0h:0m:2s left)
Iteration 40 / LogL: -7244.176 / Time: 0h:0m:1s (0h:0m:2s left)
Iteration 50 / LogL: -7244.175 / Time: 0h:0m:1s (0h:0m:1s left)
Iteration 60 / LogL: -7244.190 / Time: 0h:0m:1s (0h:0m:1s left)
Iteration 70 / LogL: -7244.590 / Time: 0h:0m:2s (0h:0m:0s left)
Iteration 80 / LogL: -7244.205 / Time: 0h:0m:2s (0h:0m:0s left)
Iteration 90 / LogL: -7244.308 / Time: 0h:0m:2s (0h:0m:0s left)
Iteration 100 / LogL: -7244.188 / Time: 0h:0m:2s (0h:0m:0s left)
TREE SEARCH COMPLETED AFTER 102 ITERATIONS / Time: 0h:0m:3s

--------------------------------------------------------------------
|                    FINALIZING TREE SEARCH                        |
--------------------------------------------------------------------
Performs final model parameters optimization
Estimate model parameters (epsilon = 0.010)
1. Initial log-likelihood: -7244.174
Optimal log-likelihood: -7244.174
Parameters optimization took 1 rounds (0.004 sec)
BEST SCORE FOUND : -7244.174
Total tree length: 7.135

Total number of iterations: 102
CPU time used for tree search: 2.969 sec (0h:0m:2s)
Wall-clock time used for tree search: 2.973 sec (0h:0m:2s)
Total CPU time used: 3.012 sec (0h:0m:3s)
Total wall-clock time used: 3.016 sec (0h:0m:3s)

Analysis results written to: 
  IQ-TREE report:                /scratch/ga42vor/simulating_quartets/accuracy_comparision/training2_30/training2_30.fasta.iqtree
  Maximum-likelihood tree:       /scratch/ga42vor/simulating_quartets/accuracy_comparision/training2_30/training2_30.fasta.treefile
  Likelihood distances:          /scratch/ga42vor/simulating_quartets/accuracy_comparision/training2_30/training2_30.fasta.mldist
  Screen log file:               /scratch/ga42vor/simulating_quartets/accuracy_comparision/training2_30/training2_30.fasta.log

Date and Time: Thu May 28 17:06:08 2020
